{
    "dashboard_summary": {
        "total_customers": 2486,
        "total_customers_growth": 15.6,
        "hot_leads": 287,
        "hot_leads_growth": 18.2,
        "potential_leads": 1024,
        "potential_leads_growth": 12.7,
        "reference_leads": 1175,
        "reference_leads_growth": 9.3,
        "conversion_rate": 18.7,
        "conversion_rate_growth": 4.2,
        "date_range": {
            "from": "2024-05-01",
            "to": "2024-05-31"
        }
    },
    "lead_distribution": {
        "hot": 287,
        "potential": 1024,
        "reference": 1175
    },
    "lead_score_distribution": [
        {
            "range": "0-20",
            "count": 213
        },
        {
            "range": "21-40",
            "count": 456
        },
        {
            "range": "41-60",
            "count": 672
        },
        {
            "range": "61-80",
            "count": 687
        },
        {
            "range": "81-100",
            "count": 458
        }
    ],
    "lead_sources_summary": [
        {
            "source": "Facebook Ads",
            "percentage": 35.6
        },
        {
            "source": "Google Ads",
            "percentage": 28.7
        },
        {
            "source": "Tìm kiếm tự nhiên",
            "percentage": 16.3
        },
        {
            "source": "Zalo",
            "percentage": 10.2
        },
        {
            "source": "Khác",
            "percentage": 9.2
        }
    ],
    "users": [
        {
            "id": "CUS001",
            "full_name": "Trần Minh Đức",
            "avatar": "https://i.pravatar.cc/150?img=1",
            "email": "duc.tran@gmail.com",
            "phone": "0901234567",
            "address": "TP. Thủ Đức, TP.HCM",
            "interested_project": {
                "name": "Vinhomes Grand Park",
                "sub_project": "The Beverly"
            },
            "budget_range": "3 - 5 tỷ",
            "lead_score": 92,
            "lead_level": "Lead nóng",
            "lead_color": "#ff4d4f",
            "behavior": {
                "views": 15,
                "messages": 3,
                "last_activity": "28 phút",
                "latest_action": "Đã dùng công cụ"
            },
            "assigned_staff": {
                "name": "Nguyễn Hoàng",
                "avatar": "https://i.pravatar.cc/150?img=11"
            },
            "status": "Đang tư vấn",
            "status_color": "#faad14",
            "source": "Facebook Ads",
            "created_at": "2024-05-02T10:20:00",
            "updated_at": "2024-05-12T14:30:00",
            "tags": [
                "VIP",
                "Quan tâm căn hộ"
            ],
            "note": "Khách phản hồi nhanh, muốn đi xem nhà cuối tuần."
        },
        {
            "id": "CUS002",
            "full_name": "Lê Thị Thu Hà",
            "avatar": "https://i.pravatar.cc/150?img=5",
            "email": "thuha@gmail.com",
            "phone": "0912345678",
            "address": "Quận 7, TP.HCM",
            "interested_project": {
                "name": "The Beverly Solari",
                "sub_project": "Vinhomes Grand Park"
            },
            "budget_range": "2 - 3 tỷ",
            "lead_score": 75,
            "lead_level": "Tiềm năng",
            "lead_color": "#faad14",
            "behavior": {
                "views": 8,
                "messages": 2,
                "last_activity": "12 phút",
                "latest_action": "Đã xem bảng giá"
            },
            "assigned_staff": {
                "name": "Phạm Mai",
                "avatar": "https://i.pravatar.cc/150?img=12"
            },
            "status": "Mới",
            "status_color": "#1677ff",
            "source": "Google Ads",
            "created_at": "2024-05-04T08:15:00",
            "updated_at": "2024-05-14T10:00:00",
            "tags": [
                "Gia đình trẻ"
            ],
            "note": "Quan tâm chính sách vay ngân hàng."
        },
        {
            "id": "CUS003",
            "full_name": "Nguyễn Quốc Duy",
            "avatar": "https://i.pravatar.cc/150?img=8",
            "email": "duy.nguyen@gmail.com",
            "phone": "0934567890",
            "address": "Bình Thạnh, TP.HCM",
            "interested_project": {
                "name": "Lumiere Boulevard",
                "sub_project": "Vinhomes Grand Park"
            },
            "budget_range": "5 - 7 tỷ",
            "lead_score": 45,
            "lead_level": "Tham khảo",
            "lead_color": "#52c41a",
            "behavior": {
                "views": 5,
                "messages": 1,
                "last_activity": "7 phút",
                "latest_action": "Đã xem dự án"
            },
            "assigned_staff": {
                "name": "Trần Văn Nam",
                "avatar": "https://i.pravatar.cc/150?img=13"
            },
            "status": "Mới",
            "status_color": "#1677ff",
            "source": "Zalo",
            "created_at": "2024-05-05T11:30:00",
            "updated_at": "2024-05-15T09:40:00",
            "tags": [
                "Đầu tư"
            ],
            "note": "Đang so sánh với Masterise."
        },
        {
            "id": "CUS004",
            "full_name": "Phạm Thị Kim Oanh",
            "avatar": "https://i.pravatar.cc/150?img=9",
            "email": "oanh.pham@gmail.com",
            "phone": "0987654321",
            "address": "TP. Thủ Đức, TP.HCM",
            "interested_project": {
                "name": "The Manhattan",
                "sub_project": "Vinhomes Grand Park"
            },
            "budget_range": "7 - 10 tỷ",
            "lead_score": 88,
            "lead_level": "Lead nóng",
            "lead_color": "#ff4d4f",
            "behavior": {
                "views": 12,
                "messages": 4,
                "last_activity": "20 phút",
                "latest_action": "Đã dùng công cụ"
            },
            "assigned_staff": {
                "name": "Nguyễn Hoàng",
                "avatar": "https://i.pravatar.cc/150?img=14"
            },
            "status": "Đang tư vấn",
            "status_color": "#faad14",
            "source": "Facebook Ads",
            "created_at": "2024-05-06T13:20:00",
            "updated_at": "2024-05-16T16:00:00",
            "tags": [
                "Biệt thự"
            ],
            "note": "Muốn gặp trực tiếp sales."
        },
        {
            "id": "CUS005",
            "full_name": "Hoàng Văn Nam",
            "avatar": "https://i.pravatar.cc/150?img=10",
            "email": "nam.hoang@gmail.com",
            "phone": "0976543210",
            "address": "Gò Vấp, TP.HCM",
            "interested_project": {
                "name": "The Origami",
                "sub_project": "Vinhomes Grand Park"
            },
            "budget_range": "1.5 - 2.5 tỷ",
            "lead_score": 35,
            "lead_level": "Tham khảo",
            "lead_color": "#52c41a",
            "behavior": {
                "views": 3,
                "messages": 1,
                "last_activity": "5 phút",
                "latest_action": "Đã xem bảng giá"
            },
            "assigned_staff": {
                "name": "Phạm Mai",
                "avatar": "https://i.pravatar.cc/150?img=15"
            },
            "status": "Mới",
            "status_color": "#1677ff",
            "source": "Google Ads",
            "created_at": "2024-05-07T09:00:00",
            "updated_at": "2024-05-17T10:10:00",
            "tags": [
                "Căn hộ"
            ],
            "note": "Khách còn phân vân tài chính."
        },
        {
            "id": "CUS006",
            "full_name": "Nguyễn Thị Mỹ Linh",
            "avatar": "https://i.pravatar.cc/150?img=16",
            "email": "mylinh@gmail.com",
            "phone": "0909988776",
            "address": "Quận 1, TP.HCM",
            "interested_project": {
                "name": "Masteri Centre Point",
                "sub_project": "Phase 2"
            },
            "budget_range": "4 - 6 tỷ",
            "lead_score": 81,
            "lead_level": "Lead nóng",
            "lead_color": "#ff4d4f",
            "behavior": {
                "views": 18,
                "messages": 6,
                "last_activity": "10 phút",
                "latest_action": "Đặt lịch hẹn"
            },
            "assigned_staff": {
                "name": "Lê Anh Tú",
                "avatar": "https://i.pravatar.cc/150?img=17"
            },
            "status": "Đang chăm sóc",
            "status_color": "#13c2c2",
            "source": "Facebook Ads",
            "created_at": "2024-05-08T14:45:00",
            "updated_at": "2024-05-18T11:25:00",
            "tags": [
                "VIP",
                "Đầu tư"
            ],
            "note": "Có nhu cầu mua 2 căn."
        }
    ],
    "pagination": {
        "current_page": 1,
        "total_pages": 249,
        "per_page": 10,
        "total_items": 2486
    },
    "filters": {
        "lead_levels": [
            "Tất cả",
            "Lead nóng",
            "Tiềm năng",
            "Tham khảo"
        ],
        "projects": [
            "Tất cả",
            "Vinhomes Grand Park",
            "The Beverly",
            "The Manhattan",
            "The Origami",
            "Lumiere Boulevard"
        ],
        "sources": [
            "Tất cả",
            "Facebook Ads",
            "Google Ads",
            "Tìm kiếm tự nhiên",
            "Zalo",
            "Referral"
        ],
        "staffs": [
            "Tất cả",
            "Nguyễn Hoàng",
            "Phạm Mai",
            "Trần Văn Nam",
            "Lê Anh Tú"
        ]
    }
}